moveEZ
…
Dynamic Frame moveplot2() and
moveplot3(): Separate biplots are constructed for each time
slice of the data. Both the sample points and variable axes evolve over
time, resulting in a fully dynamic animation that reflects temporal
changes in the underlying data structure. The differences between these
functions are highlighted in the subsequent sections.

To illustrate the animated biplots, we use a climate dataset included
in the package. This dataset, Africa_climate, contains climate
measurements from 10 African regions over time:

library(moveEZ) 
data("Africa_climate")
tibble::tibble(Africa_climate)
#> # A tibble: 960 × 9
#>    Year  Month     Region AccPrec DailyEva  Temp SoilMois  SPI6  wind
#>    <fct> <fct>     <fct>    <dbl>    <dbl> <dbl>    <dbl> <dbl> <dbl>
#>  1 1950  January   ARP      0.177  0.0316   14.8    2.75  1.62   4.07
#>  2 1950  February  ARP      0.208 -0.0249   15.4    2.22  1.32   4.24
#>  3 1950  March     ARP      0.306  0.0122   20.9    2.08  0.987  4.04
#>  4 1950  April     ARP      0.196  0.00396  24.8    1.73  0.916  3.72
#>  5 1950  May       ARP      0.590 -0.0448   28.4    2.47  0.691  3.91
#>  6 1950  June      ARP      0.32  -0.00754  30.4    1.17  0.249  4.40
#>  7 1950  July      ARP      1.33   0.00184  30.8    2.00  0.673  4.93
#>  8 1950  August    ARP      1.82  -0.00944  30.5    2.67  0.937  4.45
#>  9 1950  September ARP      0.706 -0.0107   29.7    1.98  1.22   3.67
#> 10 1950  October   ARP      0.102 -0.0259   25.9    0.976 1.65   3.18
#> # ℹ 950 more rows
…
To illustrate the use of a fixed target, we use the year 1989 from
the Africa_climate data set, which consists of the same
variables and number of observations:

data("Africa_climate_target")
tibble::tibble(Africa_climate_target)
#> # A tibble: 120 × 9
#>    Year  Month     Region AccPrec DailyEva  Temp SoilMois     SPI6  wind
#>    <fct> <chr>     <chr>    <dbl>    <dbl> <dbl>    <dbl>    <dbl> <dbl>
#>  1 1989  January   ARP     0.0740 -0.00416  14.9    1.11  -1.08     4.06
#>  2 1989  February  ARP     0.235  -0.00161  17.3    1.55  -0.817    4.19
#>  3 1989  March     ARP     0.815  -0.0220   21.5    2.70   0.00329  4.12
#>  4 1989  April     ARP     0.495   0.0508   25.0    2.90   0.226    3.48
#>  5 1989  May       ARP     0.0411 -0.0130   30.1    1.08   0.306    3.96
#>  6 1989  June      ARP     0.0693 -0.0234   31.6    0.633  0.261    4.33
#>  7 1989  July      ARP     0.0833 -0.0164   33.1    0.606  0.527    4.36
#>  8 1989  August    ARP     0.137  -0.0209   32.6    0.685  0.575    4.05
#>  9 1989  September ARP     0.102  -0.0246   30.1    0.656  0.0360   3.56
#> 10 1989  October   ARP     0.0330 -0.0549   26.5    0.449 -0.919    3.45
#> # ℹ 110 more rows
…
